03022014;08022014;100055;VEN;024778;;33075;33075;3969;814;;;;
03022014;08022014;100055;VEN;024779;;33075;33075;3969;814;;;;
03022014;08022014;100055;VEN;024780;;33075;33075;3969;814;;;;
03022014;08022014;100055;VEN;024781;;33075;33075;3969;814;;;;
03022014;08022014;100055;VEN;024782;;33075;33075;3969;814;;;;
03022014;08022014;100055;VEN;024785;;5000;5000;600;814;;;;
03022014;08022014;100169;VEN;024786;;0;0;0;814;;;;
03022014;08022014;100169;VEN;024787;;0;0;0;814;;;;
03022014;08022014;100169;VEN;024788;;0;0;0;814;;;;
03022014;08022014;100169;VEN;024789;;0;0;0;814;;;;
03022014;08022014;100169;VEN;024790;;0;0;0;814;;;;
03022014;08022014;100169;VEN;024791;;0;0;0;814;;;;
03022014;08022014;100169;VEN;024794;;0;0;0;814;;;;
04022014;09022014;100252;VEN;024796;;55000;55000;6600;814;;;;
04022014;09022014;100070;VEN;024797;;906695;906695;108803;814;;;;
04022014;09022014;100070;VEN;024798;;906695;906695;108803;814;;;;
04022014;09022014;100070;VEN;024799;;906695;906695;108803;814;;;;
04022014;09022014;100070;VEN;024800;;906695;906695;108803;814;;;;
04022014;09022014;100070;VEN;024801;;30017;30017;3602;814;;;;
04022014;09022014;100070;VEN;024802;;15509;15509;18611;814;;;;
04022014;09022014;100070;VEN;024803;;15509;15509;18611;814;;;;
04022014;09022014;100070;VEN;024804;;15509;15509;18611;814;;;;
04022014;09022014;100070;VEN;024805;;15509;15509;18611;814;;;;
04022014;09022014;100070;VEN;024806;;15509;15509;18611;814;;;;
04022014;09022014;100070;VEN;024807;;18863;18863;22636;814;;;;
04022014;09022014;100070;VEN;024808;;3148;3148;378;814;;;;
04022014;09022014;100070;VEN;024809;;424701;424701;50964;814;;;;
04022014;09022014;100070;VEN;024810;;565219;565219;67826;814;;;;
04022014;09022014;100070;VEN;024811;;565219;565219;67826;814;;;;
04022014;09022014;100070;VEN;024812;;565219;565219;67826;814;;;;
04022014;09022014;100535;VEN;024813;;3746375;0;0;965;;;;
06022014;11022014;100340;VEN;024814;;35776;0;0;965;;;;
10022014;15022014;100478;VEN;024815;;666048;666048;79926;814;;;;
10022014;15022014;100478;VEN;024816;;666048;666048;79926;814;;;;
10022014;15022014;100478;VEN;024817;;666048;666048;79926;814;;;;
10022014;15022014;100478;VEN;024818;;666048;666048;79926;814;;;;
10022014;15022014;100478;VEN;024819;;666048;666048;79926;814;;;;
10022014;15022014;100478;VEN;024820;;666048;666048;79926;814;;;;
10022014;15022014;100478;VEN;024821;;1892917;1892917;22715;814;;;;
10022014;15022014;100478;VEN;024822;;1892917;1892917;22715;814;;;;
10022014;15022014;100478;VEN;024823;;1892917;1892917;22715;814;;;;
10022014;15022014;100486;VEN;024824;;54825;54825;6579;814;;;;
10022014;15022014;100486;VEN;024825;;99975;99975;11997;814;;;;
10022014;15022014;100486;VEN;024826;;99975;99975;11997;814;;;;
10022014;15022014;100486;VEN;024827;;99975;99975;11997;814;;;;
10022014;15022014;100486;VEN;024828;;99975;99975;11997;814;;;;
10022014;15022014;100486;VEN;024829;;99975;99975;11997;814;;;;
10022014;15022014;100486;VEN;024830;;1341231;1341231;160948;814;;;;
10022014;15022014;100486;VEN;024831;;1640027;1640027;196803;814;;;;
10022014;15022014;100486;VEN;024832;;1640027;1640027;196803;814;;;;
10022014;15022014;100486;VEN;024833;;1640027;1640027;196803;814;;;;
10022014;15022014;100486;VEN;024834;;1640027;1640027;196803;814;;;;
10022014;15022014;100486;VEN;024835;;1640027;1640027;196803;814;;;;
10022014;15022014;100486;VEN;024836;;1640027;1640027;196803;814;;;;
10022014;15022014;100164;VEN;024837;;7000;7000;840;814;;;;
10022014;15022014;100532;VEN;024838;;278754;278754;3345;814;;;;
11022014;16022014;100551;VEN;024841;;0;0;0;814;;;;
11022014;16022014;100551;VEN;024842;;3367536;3367536;404104;814;;;;
11022014;16022014;100551;VEN;024843;;22500;22500;2700;814;;;;
11022014;16022014;100469;VEN;024844;;137825;137825;16539;814;;;;
11022014;16022014;100463;VEN;024845;;27000;27000;3240;814;;;;
11022014;16022014;100302;VEN;024846;;8750;8750;1050;814;;;;
11022014;16022014;100239;VEN;024847;;650719;650719;78086;814;;;;
11022014;16022014;100239;VEN;024848;;49250;49250;5910;814;;;;
11022014;16022014;100239;VEN;024849;;3500;3500;420;814;;;;
11022014;16022014;100239;VEN;024850;;5750;5750;690;814;;;;
11022014;16022014;100348;VEN;024851;;2000;2000;240;814;;;;
11022014;16022014;100079;VEN;024852;;36750;36750;4410;814;;;;
11022014;16022014;100265;VEN;024853;;182000;182000;21840;814;;;;
11022014;16022014;100285;VEN;024854;;15750;15750;1890;814;;;;
11022014;16022014;100075;VEN;024855;;56250;56250;6750;814;;;;
11022014;16022014;100527;VEN;024856;;12250;12250;1470;814;;;;
11022014;16022014;100527;VEN;024857;;29500;29500;3540;814;;;;
11022014;16022014;100282;VEN;024858;;18750;18750;2250;814;;;;
11022014;16022014;100262;VEN;024859;;135750;135750;16290;814;;;;
11022014;16022014;100210;VEN;024860;;21250;21250;2550;814;;;;
11022014;16022014;100050;VEN;024861;;50000;50000;6000;814;;;;
11022014;16022014;100104;VEN;024862;;35000;35000;4200;814;;;;
11022014;16022014;100341;VEN;024863;;8000;8000;960;814;;;;
11022014;16022014;100485;VEN;024864;;32500;32500;3900;814;;;;
11022014;16022014;100007;VEN;024865;;356775;356775;42813;814;;;;
11022014;16022014;100142;VEN;024866;;21250;21250;2550;814;;;;
11022014;16022014;100472;VEN;024867;;29190;29190;35028;814;;;;
11022014;16022014;100531;VEN;024868;;2750;2750;330;814;;;;
11022014;16022014;100171;VEN;024869;;23500;23500;2820;814;;;;
11022014;16022014;100284;VEN;024870;;26500;26500;3180;814;;;;
11022014;16022014;100119;VEN;024871;;1822725;1822725;218727;814;;;;
11022014;16022014;100327;VEN;024872;;17250;17250;2070;814;;;;
11022014;16022014;100036;VEN;024873;;13500;13500;1620;814;;;;
11022014;16022014;100028;VEN;024874;;16250;16250;1950;814;;;;
11022014;16022014;100486;VEN;024875;;5159676;5159676;619161;814;;;;
11022014;16022014;100029;VEN;024876;;16500;16500;1980;814;;;;
11022014;16022014;100081;VEN;024877;;8750;8750;1050;814;;;;
11022014;16022014;100182;VEN;024878;;35250;35250;4230;814;;;;
11022014;16022014;100027;VEN;024879;;32750;32750;3930;814;;;;
11022014;16022014;100022;VEN;024880;;19500;19500;2340;814;;;;
11022014;16022014;100056;VEN;024881;;27250;27250;3270;814;;;;
11022014;16022014;100247;VEN;024882;;41500;41500;4980;814;;;;
11022014;16022014;100102;VEN;024883;;36666502;36666502;439998;814;;;;
11022014;16022014;100158;VEN;024884;;102565;102565;123078;814;;;;
11022014;16022014;100542;VEN;024885;;37750;37750;4530;814;;;;
11022014;16022014;100369;VEN;024886;;13689516;13689516;1642742;814;;;;
11022014;16022014;100026;VEN;024887;;22750;22750;2730;814;;;;
11022014;16022014;100252;VEN;024888;;55000;55000;6600;814;;;;
11022014;16022014;100442;VEN;024889;;12750;12750;1530;814;;;;
11022014;16022014;100491;VEN;024890;;2750;2750;330;814;;;;
11022014;16022014;100128;VEN;024891;;73000;73000;8760;814;;;;
11022014;16022014;100471;VEN;024892;;25500;25500;3060;814;;;;
11022014;16022014;100121;VEN;024893;;74000;74000;8880;814;;;;
11022014;16022014;100023;VEN;024894;;16750;16750;2010;814;;;;
11022014;16022014;100288;VEN;024895;;32000;32000;3840;814;;;;
11022014;16022014;100015;VEN;024896;;18500;18500;2220;814;;;;
11022014;16022014;100009;VEN;024897;;17000;17000;2040;814;;;;
11022014;16022014;100053;VEN;024898;;36165;36165;43398;814;;;;
11022014;16022014;100532;VEN;024899;;5137962;5137962;616555;814;;;;
11022014;16022014;100308;VEN;024900;;6895;6895;8274;814;;;;
11022014;16022014;100072;VEN;024901;;116825;116825;14019;814;;;;
11022014;16022014;100224;VEN;024902;;32000;32000;3840;814;;;;
11022014;16022014;100139;VEN;024903;;12250;12250;1470;814;;;;
11022014;16022014;100008;VEN;024904;;20000;20000;2400;814;;;;
11022014;16022014;100017;VEN;024905;;14750;14750;1770;814;;;;
11022014;16022014;100100;VEN;024906;;12500;12500;1500;814;;;;
11022014;16022014;100535;VEN;024907;;15670;15670;18804;814;;;;
11022014;16022014;100316;VEN;024908;;6750;6750;810;814;;;;
11022014;16022014;100120;VEN;024909;;33000;33000;3960;814;;;;
11022014;16022014;100203;VEN;024910;;11060;11060;13272;814;;;;
11022014;16022014;100443;VEN;024911;;95250;95250;11430;814;;;;
11022014;16022014;100510;VEN;024912;;2750;2750;330;814;;;;
11022014;16022014;100474;VEN;024913;;69750;69750;8370;814;;;;
11022014;16022014;100482;VEN;024914;;23750;23750;2850;814;;;;
11022014;16022014;100124;VEN;024915;;3250;3250;390;814;;;;
11022014;16022014;100551;VEN;024916;;22500;22500;2700;814;;;;
11022014;16022014;100449;VEN;024917;;23750;23750;2850;814;;;;
11022014;16022014;100371;VEN;024918;;2500;2500;300;814;;;;
11022014;16022014;100466;VEN;024919;;11750;11750;1410;814;;;;
11022014;16022014;100466;VEN;024920;;2150;2150;258;814;;;;
11022014;16022014;100049;VEN;024921;;27750;27750;3330;814;;;;
11022014;16022014;100409;VEN;024922;;68500;68500;8220;814;;;;
11022014;16022014;100066;VEN;024923;;240025;240025;28803;814;;;;
11022014;16022014;100552;VEN;024924;;49000;49000;5880;814;;;;
11022014;16022014;100037;VEN;024925;;14920;14920;17904;814;;;;
11022014;16022014;100540;VEN;024926;;6000;6000;720;814;;;;
11022014;16022014;100016;VEN;024927;;21250;21250;2550;814;;;;
11022014;16022014;100097;VEN;024928;;50500;50500;6060;814;;;;
11022014;16022014;100054;VEN;024929;;19750;19750;2370;814;;;;
11022014;16022014;100417;VEN;024930;;3250;3250;390;814;;;;
11022014;16022014;100291;VEN;024931;;29750;29750;3570;814;;;;
11022014;16022014;100458;VEN;024932;;18550;18550;2226;814;;;;
11022014;16022014;100004;VEN;024933;;88500;88500;10620;814;;;;
11022014;16022014;100522;VEN;024934;;2750;2750;330;814;;;;
11022014;16022014;100461;VEN;024935;;6000;6000;720;814;;;;
11022014;16022014;100045;VEN;024936;;26235;26235;31482;814;;;;
11022014;16022014;100479;VEN;024937;;94750;94750;11370;814;;;;
11022014;16022014;100098;VEN;024938;;10250;10250;1230;814;;;;
11022014;16022014;100177;VEN;024939;;7750;7750;930;814;;;;
11022014;16022014;100422;VEN;024940;;12250;12250;1470;814;;;;
11022014;16022014;100209;VEN;024941;;47000;47000;5640;814;;;;
11022014;16022014;100521;VEN;024942;;30000;30000;3600;814;;;;
11022014;16022014;100019;VEN;024943;;16000;16000;1920;814;;;;
11022014;16022014;100196;VEN;024944;;37000;37000;4440;814;;;;
11022014;16022014;100312;VEN;024945;;39750;39750;4770;814;;;;
11022014;16022014;100287;VEN;024946;;2000;2000;240;814;;;;
11022014;16022014;100085;VEN;024947;;103515;103515;124218;814;;;;
11022014;16022014;100014;VEN;024948;;12000;12000;1440;814;;;;
11022014;16022014;100243;VEN;024949;;35500;35500;4260;814;;;;
11022014;16022014;100273;VEN;024950;;9000;9000;1080;814;;;;
11022014;16022014;100286;VEN;024951;;37500;37500;4500;814;;;;
11022014;16022014;100427;VEN;024952;;1762058;1762058;211447;814;;;;
11022014;16022014;100427;VEN;024953;;2412831;2412831;28954;814;;;;
11022014;16022014;100427;VEN;024954;;12000;12000;1440;814;;;;
11022014;16022014;100074;VEN;024955;;47725;47725;5727;814;;;;
11022014;16022014;100150;VEN;024956;;22000;22000;2640;814;;;;
11022014;16022014;100060;VEN;024957;;6750;6750;810;814;;;;
11022014;16022014;100246;VEN;024958;;8750;8750;1050;814;;;;
11022014;16022014;100488;VEN;024959;;25500;25500;3060;814;;;;
11022014;16022014;100178;VEN;024960;;54250;54250;6510;814;;;;
11022014;16022014;100524;VEN;024961;;112000;112000;13440;814;;;;
11022014;16022014;100473;VEN;024962;;45750;45750;5490;814;;;;
11022014;16022014;100525;VEN;024963;;49000;49000;5880;814;;;;
11022014;16022014;100084;VEN;024964;;38000;38000;4560;814;;;;
11022014;16022014;100307;VEN;024965;;21750;21750;2610;814;;;;
11022014;16022014;100528;VEN;024966;;46250;46250;5550;814;;;;
11022014;16022014;100383;VEN;024967;;47000;47000;5640;814;;;;
11022014;16022014;100407;VEN;024968;;45000;45000;5400;814;;;;
11022014;16022014;100225;VEN;024969;;28500;28500;3420;814;;;;
11022014;16022014;100087;VEN;024970;;33000;33000;3960;814;;;;
11022014;16022014;100518;VEN;024971;;19500;19500;2340;814;;;;
11022014;16022014;100483;VEN;024972;;34500;34500;4140;814;;;;
11022014;16022014;100244;VEN;024973;;40750;40750;4890;814;;;;
11022014;16022014;100010;VEN;024974;;49750;49750;5970;814;;;;
11022014;16022014;100478;VEN;024975;;5375792;5375792;645095;814;;;;
11022014;16022014;100462;VEN;024976;;2250;2250;270;814;;;;
11022014;16022014;100428;VEN;024977;;188500;188500;22620;814;;;;
11022014;16022014;100490;VEN;024978;;44500;44500;5340;814;;;;
11022014;16022014;100313;VEN;024979;;2750;2750;330;814;;;;
11022014;16022014;100436;VEN;024980;;14000;14000;1680;814;;;;
11022014;16022014;100052;VEN;024981;;22250;22250;2670;814;;;;
11022014;16022014;100076;VEN;024982;;133500;133500;16020;814;;;;
11022014;16022014;100024;VEN;024983;;24250;24250;2910;814;;;;
11022014;16022014;100470;VEN;024984;;103625;103625;12435;814;;;;
11022014;16022014;100057;VEN;024985;;24500;24500;2940;814;;;;
11022014;16022014;100264;VEN;024986;;113250;113250;13590;814;;;;
11022014;16022014;100263;VEN;024987;;4384675;4384675;526161;814;;;;
11022014;16022014;100086;VEN;024988;;167325;167325;20079;814;;;;
11022014;16022014;100003;VEN;024989;;19750;19750;2370;814;;;;
11022014;16022014;100091;VEN;024990;;4500;4500;540;814;;;;
11022014;16022014;100118;VEN;024991;;207525;207525;24903;814;;;;
11022014;16022014;100055;VEN;024992;;5000;5000;600;814;;;;
11022014;16022014;100020;VEN;024993;;7500;7500;900;814;;;;
11022014;16022014;100267;VEN;024994;;7500;7500;900;814;;;;
14022014;19022014;100304;VEN;024995;;106958;106958;12835;814;;;;
14022014;19022014;100304;VEN;024996;;640755;640755;76891;814;;;;
14022014;19022014;100304;VEN;024997;;1524226;1524226;182907;814;;;;
14022014;19022014;100304;VEN;024998;;1961751;1961751;23541;814;;;;
14022014;19022014;100304;VEN;024999;;1961751;1961751;23541;814;;;;
14022014;19022014;100304;VEN;025000;;41580;41580;49896;814;;;;
14022014;19022014;100304;VEN;025001;;41580;41580;49896;814;;;;
14022014;19022014;100304;VEN;025002;;41580;41580;49896;814;;;;
14022014;19022014;100304;VEN;025003;;41580;41580;49896;814;;;;
14022014;19022014;100304;VEN;025004;;41580;41580;49896;814;;;;
14022014;19022014;100304;VEN;025005;;41580;41580;49896;814;;;;
14022014;19022014;100304;VEN;025007;;22750;22750;2730;814;;;;
14022014;19022014;100304;VEN;025008;;22750;22750;2730;814;;;;
14022014;19022014;100303;VEN;025010;;61236;61236;734832;814;;;;
14022014;19022014;100303;VEN;025011;;61236;61236;734832;814;;;;
14022014;19022014;100303;VEN;025012;;61236;61236;734832;814;;;;
14022014;19022014;100303;VEN;025013;;61236;61236;734832;814;;;;
14022014;19022014;100303;VEN;025014;;61236;61236;734832;814;;;;
14022014;19022014;100303;VEN;025015;;61236;61236;734832;814;;;;
14022014;19022014;100303;VEN;025016;;61236;61236;734832;814;;;;
14022014;19022014;100303;VEN;025017;;61236;61236;734832;814;;;;
14022014;19022014;100303;VEN;025019;;33500;33500;4020;814;;;;
14022014;19022014;100303;VEN;025020;;33500;33500;4020;814;;;;
14022014;19022014;100172;VEN;025021;;14250;14250;1710;814;;;;
14022014;19022014;100172;VEN;025022;;14250;14250;1710;814;;;;
21022014;26022014;100087;VEN;025024;;2570;2570;3084;1102;;;;
24022014;01032014;100297;VEN;025025;;2656463;2656463;318776;814;;;;
24022014;01032014;100297;VEN;025026;;3719048;3719048;446286;814;;;;
24022014;01032014;100297;VEN;025027;;3719048;3719048;446286;814;;;;
24022014;01032014;100297;VEN;025028;;3719048;3719048;446286;814;;;;
24022014;01032014;100297;VEN;025029;;4331039;4331039;519725;814;;;;
24022014;01032014;100297;VEN;025030;;4331039;4331039;519725;814;;;;
24022014;01032014;100297;VEN;025031;;4331039;4331039;519725;814;;;;
24022014;01032014;100297;VEN;025032;;4331039;4331039;519725;814;;;;
24022014;01032014;100297;VEN;025033;;13642782;13642782;1637134;814;;;;
26022014;03032014;100427;VEN;025034;;0;0;0;814;;;;
05032014;10032014;100369;VEN;025035;;117269;117269;14072;1153;;;;
05032014;10032014;100257;VEN;025036;;21977;21977;2637;1153;;;;
05032014;10032014;100479;VEN;025037;;65515;65515;7862;1153;;;;
05032014;10032014;100273;VEN;025038;;2557;2557;3068;1153;;;;
05032014;10032014;100102;VEN;025039;;2415461;2415461;289855;1153;;;;
05032014;10032014;100302;VEN;025040;;18153;18153;2178;1153;;;;
05032014;10032014;100305;VEN;025041;;30396;30396;3648;1153;;;;
05032014;10032014;100463;VEN;025042;;65557;65557;7867;1153;;;;
05032014;10032014;100056;VEN;025043;;62001;62001;744;1153;;;;
05032014;10032014;100256;VEN;025044;;79151;79151;9498;1153;;;;
05032014;10032014;100243;VEN;025045;;184627;184627;22155;1153;;;;
05032014;10032014;100349;VEN;025046;;119514;119514;14342;1153;;;;
05032014;10032014;100303;VEN;025047;;52169;52169;626;1153;;;;
05032014;10032014;100286;VEN;025048;;66366;66366;7964;1153;;;;
05032014;10032014;100174;VEN;025049;;109187;109187;13102;1153;;;;
05032014;10032014;100097;VEN;025050;;239454;239454;28734;1153;;;;
05032014;10032014;100016;VEN;025051;;57534;57534;6904;1153;;;;
05032014;10032014;100485;VEN;025052;;57044;57044;6845;1153;;;;
05032014;10032014;100282;VEN;025053;;37329;37329;4479;1153;;;;
05032014;10032014;100209;VEN;025054;;126034;126034;15124;1153;;;;
05032014;10032014;100009;VEN;025055;;172365;172365;20684;1153;;;;
05032014;10032014;100046;VEN;025056;;191087;191087;2293;1153;;;;
05032014;10032014;100172;VEN;025057;;171742;171742;20609;1153;;;;
05032014;10032014;100023;VEN;025058;;52862;52862;6343;1153;;;;
05032014;10032014;100184;VEN;025059;;32296;32296;3876;1153;;;;
05032014;10032014;100190;VEN;025060;;45686;45686;5482;1153;;;;
05032014;10032014;100182;VEN;025061;;63804;63804;7656;1153;;;;
05032014;10032014;100022;VEN;025062;;7005;7005;8406;1153;;;;
05032014;10032014;100003;VEN;025063;;29919;29919;359;1153;;;;
05032014;10032014;100008;VEN;025064;;58658;58658;7039;1153;;;;
05032014;10032014;100057;VEN;025065;;66165;66165;794;1153;;;;
05032014;10032014;100010;VEN;025066;;62915;62915;755;1153;;;;
05032014;10032014;100520;VEN;025067;;30606;30606;3673;1153;;;;
05032014;10032014;100070;VEN;025068;;48476;48476;5817;1153;;;;
05032014;10032014;100104;VEN;025069;;65554;65554;7866;1153;;;;
05032014;10032014;100292;VEN;025070;;68446;68446;8214;1153;;;;
05032014;10032014;100267;VEN;025071;;44474;44474;5337;1153;;;;
05032014;10032014;100490;VEN;025072;;657;657;7884;1153;;;;
05032014;10032014;100004;VEN;025073;;106618;106618;12794;1153;;;;
05032014;10032014;100078;VEN;025074;;136147;136147;16338;1153;;;;
05032014;10032014;100524;VEN;025075;;120599;120599;14472;1153;;;;
05032014;10032014;100143;VEN;025076;;65124;65124;7815;1153;;;;
05032014;10032014;100318;VEN;025077;;74061;74061;8887;1153;;;;
05032014;10032014;100364;VEN;025078;;56668;56668;68;1153;;;;
05032014;10032014;100224;VEN;025079;;69711;69711;8365;1153;;;;
05032014;10032014;100225;VEN;025080;;47582;47582;571;1153;;;;
05032014;10032014;100083;VEN;025081;;15391;15391;18469;1153;;;;
05032014;10032014;100087;VEN;025082;;55408;55408;6649;1153;;;;
05032014;10032014;100027;VEN;025083;;58326;58326;6999;1153;;;;
05032014;10032014;100121;VEN;025084;;92651;92651;11118;1153;;;;
05032014;10032014;100138;VEN;025085;;63726;63726;7647;1153;;;;
05032014;10032014;100541;VEN;025086;;45932;45932;5512;1153;;;;
05032014;10032014;100054;VEN;025087;;45036;45036;5404;1153;;;;
05032014;10032014;100100;VEN;025088;;53553;53553;6426;1153;;;;
05032014;10032014;100149;VEN;025089;;28312;28312;3397;1153;;;;
05032014;10032014;100171;VEN;025090;;37545;37545;4505;1153;;;;
05032014;10032014;100071;VEN;025091;;4407;4407;5288;1153;;;;
05032014;10032014;100194;VEN;025092;;37013;37013;4442;1153;;;;
05032014;10032014;100310;VEN;025093;;51012;51012;6121;1153;;;;
05032014;10032014;100030;VEN;025094;;37956;37956;4555;1153;;;;
05032014;10032014;100265;VEN;025095;;221405;221405;26569;1153;;;;
05032014;10032014;100164;VEN;025096;;67809;67809;8137;1153;;;;
05032014;10032014;100049;VEN;025097;;65419;65419;785;1153;;;;
05032014;10032014;100208;VEN;025098;;48858;48858;5863;1153;;;;
05032014;10032014;100269;VEN;025099;;35421;35421;4251;1153;;;;
05032014;10032014;100259;VEN;025100;;3446;3446;4135;1153;;;;
05032014;10032014;100283;VEN;025101;;46921;46921;5631;1153;;;;
05032014;10032014;100347;VEN;025102;;38576;38576;4629;1153;;;;
05032014;10032014;100177;VEN;025103;;52956;52956;6355;1153;;;;
05032014;10032014;100111;VEN;025104;;53727;53727;6447;1153;;;;
05032014;10032014;100075;VEN;025105;;74861;74861;8983;1153;;;;
05032014;10032014;100192;VEN;025106;;118752;118752;1425;1153;;;;
05032014;10032014;100136;VEN;025107;;110424;110424;13251;1153;;;;
05032014;10032014;100084;VEN;025108;;5843;5843;7012;1153;;;;
05032014;10032014;100076;VEN;025109;;190962;190962;22915;1153;;;;
05032014;10032014;100263;VEN;025110;;86726;86726;10407;1153;;;;
05032014;10032014;100528;VEN;025111;;134363;134363;16124;1153;;;;
05032014;10032014;100038;VEN;025112;;63166;63166;758;1153;;;;
05032014;10032014;100404;VEN;025113;;54036;54036;6484;1153;;;;
05032014;10032014;100287;VEN;025114;;35299;35299;4236;1153;;;;
05032014;10032014;100284;VEN;025115;;59422;59422;7131;1153;;;;
05032014;10032014;100307;VEN;025116;;53891;53891;6467;1153;;;;
05032014;10032014;100169;VEN;025117;;42974;42974;5157;1153;;;;
05032014;10032014;100139;VEN;025118;;108464;108464;13016;1153;;;;
05032014;10032014;100079;VEN;025119;;24346;24346;2922;1153;;;;
05032014;10032014;100001;VEN;025120;;23157;23157;2779;1153;;;;
05032014;10032014;100110;VEN;025121;;36868;36868;4424;1153;;;;
05032014;10032014;100059;VEN;025122;;107012;107012;12841;1153;;;;
05032014;10032014;100385;VEN;025123;;67599;67599;8112;1153;;;;
05032014;10032014;100527;VEN;025124;;34786;34786;4174;1153;;;;
05032014;10032014;100032;VEN;025125;;33588;33588;4031;1153;;;;
05032014;10032014;100483;VEN;025126;;28188;28188;3383;1153;;;;
05032014;10032014;100035;VEN;025127;;22132;22132;2656;1153;;;;
05032014;10032014;100130;VEN;025128;;70145;70145;8417;1153;;;;
05032014;10032014;100103;VEN;025129;;60935;60935;7312;1153;;;;
05032014;10032014;100089;VEN;025130;;69318;69318;8318;1153;;;;
05032014;10032014;100470;VEN;025131;;5528;5528;6634;1153;;;;
05032014;10032014;100207;VEN;025132;;49051;49051;5886;1153;;;;
05032014;10032014;100021;VEN;025133;;61691;61691;7403;1153;;;;
05032014;10032014;100245;VEN;025134;;47087;47087;565;1153;;;;
05032014;10032014;100205;VEN;025135;;44095;44095;5291;1153;;;;
05032014;10032014;100066;VEN;025136;;48405;48405;5809;1153;;;;
05032014;10032014;100183;VEN;025137;;6023;6023;7228;1153;;;;
05032014;10032014;100305;VEN;025138;;22254;22254;267;1153;;;;
05032014;10032014;100535;VEN;025139;;36011;36011;4321;1153;;;;
06032014;11032014;100222;VEN;025140;;47888;47888;5747;1153;;;;
06032014;11032014;100189;VEN;025141;;73101;73101;8772;1153;;;;
06032014;11032014;100053;VEN;025142;;62646;62646;7518;1153;;;;
06032014;11032014;100281;VEN;025143;;42439;42439;5093;1153;;;;
06032014;11032014;100295;VEN;025144;;367904;367904;44148;1153;;;;
06032014;11032014;100298;VEN;025145;;66722;66722;8007;1153;;;;
06032014;11032014;100127;VEN;025146;;67697;67697;8124;1153;;;;
06032014;11032014;100044;VEN;025147;;45984;45984;5518;1153;;;;
06032014;11032014;100031;VEN;025148;;41703;41703;5004;1153;;;;
06032014;11032014;100158;VEN;025149;;141621;141621;16995;1153;;;;
06032014;11032014;100292;VEN;025150;;73771;73771;8853;1153;;;;
06032014;11032014;100041;VEN;025151;;93995;93995;11279;1153;;;;
06032014;11032014;100193;VEN;025152;;89807;89807;10777;1153;;;;
06032014;11032014;100085;VEN;025153;;161167;161167;1934;1153;;;;
06032014;11032014;100045;VEN;025154;;64216;64216;7706;1153;;;;
06032014;11032014;100458;VEN;025155;;44917;44917;539;1153;;;;
06032014;11032014;100304;VEN;025156;;57729;57729;6927;1153;;;;
06032014;11032014;100113;VEN;025157;;36322;36322;4359;1153;;;;
06032014;11032014;100203;VEN;025158;;49605;49605;5953;1153;;;;
06032014;11032014;100037;VEN;025159;;41158;41158;4939;1153;;;;
06032014;11032014;100029;VEN;025160;;33547;33547;4026;1153;;;;
06032014;11032014;100017;VEN;025161;;24929;24929;2991;1153;;;;
06032014;11032014;100165;VEN;025165;;266747;266747;3201;1153;;;;
06032014;11032014;100007;VEN;025166;;68881;68881;8266;1153;;;;
06032014;11032014;100472;VEN;025167;;54911;54911;6589;1153;;;;
06032014;11032014;100125;VEN;025168;;78457;78457;9415;1153;;;;
06032014;11032014;100308;VEN;025169;;73291;73291;8795;1153;;;;
06032014;11032014;100473;VEN;025170;;92925;92925;11151;1153;;;;
06032014;11032014;100074;VEN;025171;;84934;84934;10192;1153;;;;
06032014;11032014;100118;VEN;025172;;69095;69095;8291;1153;;;;
06032014;11032014;100345;VEN;025173;;44408;44408;5329;1153;;;;
06032014;11032014;100072;VEN;025174;;39295;39295;4715;1153;;;;
06032014;11032014;100466;VEN;025175;;38607;38607;4633;1153;;;;
06032014;11032014;100346;VEN;025176;;42696;42696;5124;1153;;;;
06032014;11032014;100469;VEN;025177;;22186;22186;2662;1153;;;;
06032014;11032014;100086;VEN;025178;;46281;46281;5554;1153;;;;
06032014;11032014;100354;VEN;025179;;38561;38561;4627;1153;;;;
06032014;11032014;100099;VEN;025180;;566685;566685;680022;907;;;;
11032014;16032014;100520;VEN;025181;;371673;371673;446008;814;;;;
11032014;16032014;100520;VEN;025182;;371673;371673;446008;814;;;;
11032014;16032014;100272;VEN;025184;;547098;547098;65652;907;;;;
26032014;31032014;100119;VEN;025208;;1578913;1578913;18947;1153;;;;
26032014;31032014;100119;VEN;025209;;134075;134075;16089;1153;;;;
26032014;31032014;100119;VEN;025210;;144963;144963;173956;1153;;;;
26032014;31032014;100305;VEN;025211;;32482;32482;3898;1153;;;;
26032014;31032014;100305;VEN;025212;;27998;27998;336;1153;;;;
26032014;31032014;100463;VEN;025213;;6558;6558;787;1153;;;;
26032014;31032014;100463;VEN;025214;;60826;60826;7299;1153;;;;
26032014;31032014;100056;VEN;025215;;64902;64902;7788;1153;;;;
26032014;31032014;100056;VEN;025216;;59537;59537;7144;1153;;;;
26032014;31032014;100256;VEN;025217;;80159;80159;9619;1153;;;;
26032014;31032014;100256;VEN;025218;;71403;71403;8568;1153;;;;
26032014;31032014;100286;VEN;025219;;73121;73121;8775;1153;;;;
26032014;31032014;100286;VEN;025220;;61819;61819;7418;1153;;;;
26032014;31032014;100243;VEN;025221;;19297;19297;23156;1153;;;;
26032014;31032014;100243;VEN;025222;;182565;182565;21908;1153;;;;
26032014;31032014;100174;VEN;025223;;97593;97593;11711;1153;;;;
26032014;31032014;100174;VEN;025224;;108933;108933;13072;1153;;;;
26032014;31032014;100097;VEN;025225;;252935;252935;30352;1153;;;;
26032014;31032014;100097;VEN;025226;;224688;224688;26963;1153;;;;
26032014;31032014;100016;VEN;025227;;61514;61514;7382;1153;;;;
26032014;31032014;100016;VEN;025228;;55172;55172;6621;1153;;;;
26032014;31032014;100303;VEN;025229;;52903;52903;6348;1153;;;;
26032014;31032014;100303;VEN;025230;;45758;45758;5491;1153;;;;
26032014;31032014;100349;VEN;025231;;118224;118224;14187;1153;;;;
26032014;31032014;100349;VEN;025232;;102853;102853;12342;1153;;;;
26032014;31032014;100485;VEN;025233;;73229;73229;8787;1153;;;;
26032014;31032014;100485;VEN;025234;;61294;61294;7355;1153;;;;
26032014;31032014;100282;VEN;025235;;39429;39429;4731;1153;;;;
26032014;31032014;100282;VEN;025236;;36599;36599;4392;1153;;;;
26032014;31032014;100209;VEN;025237;;135682;135682;16282;1153;;;;
26032014;31032014;100209;VEN;025238;;116205;116205;13945;1153;;;;
26032014;31032014;100009;VEN;025239;;178942;178942;21473;1153;;;;
26032014;31032014;100009;VEN;025240;;168459;168459;20215;1153;;;;
26032014;31032014;100046;VEN;025241;;207203;207203;24864;1153;;;;
26032014;31032014;100046;VEN;025242;;190637;190637;22876;1153;;;;
26032014;31032014;100172;VEN;025243;;177805;177805;21337;1153;;;;
26032014;31032014;100172;VEN;025244;;168445;168445;20213;1153;;;;
26032014;31032014;100369;VEN;025245;;118157;118157;14179;1153;;;;
26032014;31032014;100369;VEN;025246;;103486;103486;12418;1153;;;;
26032014;31032014;100479;VEN;025247;;51756;51756;6211;1153;;;;
26032014;31032014;100479;VEN;025248;;49752;49752;597;1153;;;;
26032014;31032014;100257;VEN;025249;;22928;22928;2751;1153;;;;
26032014;31032014;100257;VEN;025250;;21233;21233;2548;1153;;;;
26032014;31032014;100273;VEN;025251;;27444;27444;3293;1153;;;;
26032014;31032014;100273;VEN;025252;;2473;2473;2968;1153;;;;
26032014;31032014;100102;VEN;025253;;2600806;2600806;312097;1153;;;;
26032014;31032014;100102;VEN;025254;;2333113;2333113;279974;1153;;;;
26032014;31032014;100302;VEN;025255;;1892;1892;227;1153;;;;
26032014;31032014;100302;VEN;025256;;17578;17578;2109;1153;;;;
26032014;31032014;100111;VEN;025257;;58361;58361;7003;1153;;;;
26032014;31032014;100111;VEN;025258;;47321;47321;5679;1153;;;;
26032014;31032014;100075;VEN;025259;;77955;77955;9355;1153;;;;
26032014;31032014;100075;VEN;025260;;66608;66608;7993;1153;;;;
26032014;31032014;100192;VEN;025261;;122357;122357;14683;1153;;;;
26032014;31032014;100192;VEN;025262;;111544;111544;13385;1153;;;;
26032014;31032014;100136;VEN;025263;;11398;11398;13678;1153;;;;
26032014;31032014;100136;VEN;025264;;100026;100026;12003;1153;;;;
26032014;31032014;100084;VEN;025265;;59563;59563;7148;1153;;;;
26032014;31032014;100084;VEN;025266;;45776;45776;5493;1153;;;;
26032014;31032014;100076;VEN;025267;;196358;196358;23563;1153;;;;
26032014;31032014;100076;VEN;025268;;176948;176948;21234;1153;;;;
26032014;31032014;100263;VEN;025269;;90255;90255;10831;1153;;;;
26032014;31032014;100263;VEN;025270;;8408;8408;1009;1153;;;;
26032014;31032014;100528;VEN;025271;;13997;13997;16796;1153;;;;
26032014;31032014;100528;VEN;025272;;11796;11796;14155;1153;;;;
26032014;31032014;100038;VEN;025273;;65051;65051;7806;1153;;;;
26032014;31032014;100038;VEN;025274;;50484;50484;6058;1153;;;;
27032014;01042014;100091;VEN;025275;;31458;31458;3775;1153;;;;
27032014;01042014;100091;VEN;025276;;26357;26357;3163;1153;;;;
27032014;01042014;100518;VEN;025277;;50514;50514;6062;1153;;;;
27032014;01042014;100518;VEN;025278;;43097;43097;5172;1153;;;;
27032014;01042014;100413;VEN;025279;;36203;36203;4344;1153;;;;
27032014;01042014;100413;VEN;025280;;27707;27707;3325;1153;;;;
27032014;01042014;100404;VEN;025281;;54502;54502;654;1153;;;;
27032014;01042014;100404;VEN;025282;;45737;45737;5488;1153;;;;
27032014;01042014;100015;VEN;025283;;44346;44346;5322;1153;;;;
27032014;01042014;100015;VEN;025284;;41373;41373;4965;1153;;;;
27032014;01042014;100014;VEN;025285;;51129;51129;6135;1153;;;;
27032014;01042014;100014;VEN;025286;;46959;46959;5635;1153;;;;
27032014;01042014;100527;VEN;025287;;62003;62003;744;1153;;;;
27032014;01042014;100527;VEN;025288;;60182;60182;7222;1153;;;;
27032014;01042014;100287;VEN;025289;;35848;35848;4302;1153;;;;
27032014;01042014;100287;VEN;025290;;34224;34224;4107;1153;;;;
27032014;01042014;100284;VEN;025291;;55307;55307;6637;1153;;;;
27032014;01042014;100284;VEN;025292;;47914;47914;575;1153;;;;
27032014;01042014;100307;VEN;025293;;54478;54478;6537;1153;;;;
27032014;01042014;100307;VEN;025294;;47215;47215;5666;1153;;;;
27032014;01042014;100169;VEN;025295;;43505;43505;5221;1153;;;;
27032014;01042014;100169;VEN;025296;;40111;40111;4813;1153;;;;
27032014;01042014;100139;VEN;025297;;112829;112829;1354;1153;;;;
27032014;01042014;100139;VEN;025298;;102345;102345;12282;1153;;;;
27032014;01042014;100079;VEN;025299;;2542;2542;305;1153;;;;
27032014;01042014;100079;VEN;025300;;23541;23541;2825;1153;;;;
27032014;01042014;100001;VEN;025301;;24078;24078;2889;1153;;;;
27032014;01042014;100001;VEN;025302;;22467;22467;2696;1153;;;;
27032014;01042014;100110;VEN;025303;;40947;40947;4914;1153;;;;
27032014;01042014;100110;VEN;025304;;34844;34844;4181;1153;;;;
27032014;01042014;100059;VEN;025305;;106698;106698;12804;1153;;;;
27032014;01042014;100059;VEN;025306;;99897;99897;11988;1153;;;;
27032014;01042014;100385;VEN;025307;;68954;68954;8274;1153;;;;
27032014;01042014;100385;VEN;025308;;53315;53315;6398;1153;;;;
27032014;01042014;100527;VEN;025309;;35737;35737;4288;1153;;;;
27032014;01042014;100527;VEN;025310;;34116;34116;4094;1153;;;;
27032014;01042014;100032;VEN;025311;;34355;34355;4123;1153;;;;
27032014;01042014;100032;VEN;025312;;33013;33013;3962;1153;;;;
27032014;01042014;100483;VEN;025313;;28955;28955;3475;1153;;;;
27032014;01042014;100483;VEN;025314;;27613;27613;3314;1153;;;;
27032014;01042014;100035;VEN;025315;;22592;22592;2711;1153;;;;
27032014;01042014;100035;VEN;025316;;21787;21787;2614;1153;;;;
31032014;05042014;100520;VEN;025317;;14500;14500;1740;814;;;;
31032014;05042014;100520;VEN;025318;;14500;14500;1740;814;;;;
